%YAML 1.1
%TAG !u! tag:unity3d.com,2011:
--- !u!1 &1967229587662157859
GameObject:
  m_ObjectHideFlags: 0
  m_CorrespondingSourceObject: {fileID: 0}
  m_PrefabInstance: {fileID: 0}
  m_PrefabAsset: {fileID: 0}
  serializedVersion: 6
  m_Component:
  - component: {fileID: 5466698831805908493}
  m_Layer: 0
  m_Name: Bullet_Shotgun
  m_TagString: Untagged
  m_Icon: {fileID: 0}
  m_NavMeshLayer: 0
  m_StaticEditorFlags: 0
  m_IsActive: 1
--- !u!4 &5466698831805908493
Transform:
  m_ObjectHideFlags: 0
  m_CorrespondingSourceObject: {fileID: 0}
  m_PrefabInstance: {fileID: 0}
  m_PrefabAsset: {fileID: 0}
  m_GameObject: {fileID: 1967229587662157859}
  m_LocalRotation: {x: 0, y: 0, z: 0, w: 1}
  m_LocalPosition: {x: -0.89, y: 0.80960274, z: 61.75524}
  m_LocalScale: {x: 1, y: 1, z: 1}
  m_Children:
  - {fileID: 4715720052858529485}
  m_Father: {fileID: 0}
  m_RootOrder: 0
  m_LocalEulerAnglesHint: {x: 0, y: 0, z: 0}
--- !u!1001 &1245783194836676630
PrefabInstance:
  m_ObjectHideFlags: 0
  serializedVersion: 2
  m_Modification:
    m_TransformParent: {fileID: 5466698831805908493}
    m_Modifications:
    - target: {fileID: 1410995891203830765, guid: 851c5c704f4d93148ac6fd0dd7caf4b5, type: 3}
      propertyPath: m_LocalScale.x
      value: 3
      objectReference: {fileID: 0}
    - target: {fileID: 1410995891203830765, guid: 851c5c704f4d93148ac6fd0dd7caf4b5, type: 3}
      propertyPath: m_LocalScale.y
      value: 3
      objectReference: {fileID: 0}
    - target: {fileID: 1410995891203830765, guid: 851c5c704f4d93148ac6fd0dd7caf4b5, type: 3}
      propertyPath: m_LocalScale.z
      value: 3
      objectReference: {fileID: 0}
    - target: {fileID: 1410995891203830767, guid: 851c5c704f4d93148ac6fd0dd7caf4b5, type: 3}
      propertyPath: playOnAwake
      value: 1
      objectReference: {fileID: 0}
    - target: {fileID: 1410995891203830767, guid: 851c5c704f4d93148ac6fd0dd7caf4b5, type: 3}
      propertyPath: InitialModule.startSpeed.scalar
      value: 5
      objectReference: {fileID: 0}
    - target: {fileID: 1410995891203830767, guid: 851c5c704f4d93148ac6fd0dd7caf4b5, type: 3}
      propertyPath: InitialModule.startColor.maxColor.a
      value: 0.49803922
      objectReference: {fileID: 0}
    - target: {fileID: 1410995891203830767, guid: 851c5c704f4d93148ac6fd0dd7caf4b5, type: 3}
      propertyPath: ColorModule.gradient.maxGradient.key0.b
      value: 0.28123888
      objectReference: {fileID: 0}
    - target: {fileID: 1410995891203830767, guid: 851c5c704f4d93148ac6fd0dd7caf4b5, type: 3}
      propertyPath: ColorModule.gradient.maxGradient.key0.g
      value: 0.65259427
      objectReference: {fileID: 0}
    - target: {fileID: 1410995891203830767, guid: 851c5c704f4d93148ac6fd0dd7caf4b5, type: 3}
      propertyPath: ColorModule.gradient.maxGradient.key0.r
      value: 0.754717
      objectReference: {fileID: 0}
    - target: {fileID: 1410995891777602684, guid: 851c5c704f4d93148ac6fd0dd7caf4b5, type: 3}
      propertyPath: playOnAwake
      value: 1
      objectReference: {fileID: 0}
    - target: {fileID: 1410995891777602684, guid: 851c5c704f4d93148ac6fd0dd7caf4b5, type: 3}
      propertyPath: InitialModule.startSpeed.scalar
      value: 5
      objectReference: {fileID: 0}
    - target: {fileID: 1410995891777602684, guid: 851c5c704f4d93148ac6fd0dd7caf4b5, type: 3}
      propertyPath: InitialModule.startColor.maxColor.a
      value: 0.49803922
      objectReference: {fileID: 0}
    - target: {fileID: 1410995891777602684, guid: 851c5c704f4d93148ac6fd0dd7caf4b5, type: 3}
      propertyPath: ColorModule.gradient.maxGradient.key0.b
      value: 0.28123888
      objectReference: {fileID: 0}
    - target: {fileID: 1410995891777602684, guid: 851c5c704f4d93148ac6fd0dd7caf4b5, type: 3}
      propertyPath: ColorModule.gradient.maxGradient.key0.g
      value: 0.65259427
      objectReference: {fileID: 0}
    - target: {fileID: 1410995891777602684, guid: 851c5c704f4d93148ac6fd0dd7caf4b5, type: 3}
      propertyPath: ColorModule.gradient.maxGradient.key0.r
      value: 0.754717
      objectReference: {fileID: 0}
    - target: {fileID: 1410995891777602686, guid: 851c5c704f4d93148ac6fd0dd7caf4b5, type: 3}
      propertyPath: m_LocalScale.x
      value: 3
      objectReference: {fileID: 0}
    - target: {fileID: 1410995891777602686, guid: 851c5c704f4d93148ac6fd0dd7caf4b5, type: 3}
      propertyPath: m_LocalScale.y
      value: 3
      objectReference: {fileID: 0}
    - target: {fileID: 1410995891777602686, guid: 851c5c704f4d93148ac6fd0dd7caf4b5, type: 3}
      propertyPath: m_LocalScale.z
      value: 3
      objectReference: {fileID: 0}
    - target: {fileID: 1410995892411970372, guid: 851c5c704f4d93148ac6fd0dd7caf4b5, type: 3}
      propertyPath: m_LocalScale.x
      value: 3
      objectReference: {fileID: 0}
    - target: {fileID: 1410995892411970372, guid: 851c5c704f4d93148ac6fd0dd7caf4b5, type: 3}
      propertyPath: m_LocalScale.y
      value: 3
      objectReference: {fileID: 0}
    - target: {fileID: 1410995892411970372, guid: 851c5c704f4d93148ac6fd0dd7caf4b5, type: 3}
      propertyPath: m_LocalScale.z
      value: 3
      objectReference: {fileID: 0}
    - target: {fileID: 1410995892411970374, guid: 851c5c704f4d93148ac6fd0dd7caf4b5, type: 3}
      propertyPath: playOnAwake
      value: 1
      objectReference: {fileID: 0}
    - target: {fileID: 1410995892411970374, guid: 851c5c704f4d93148ac6fd0dd7caf4b5, type: 3}
      propertyPath: InitialModule.startSpeed.scalar
      value: 5
      objectReference: {fileID: 0}
    - target: {fileID: 1410995892411970374, guid: 851c5c704f4d93148ac6fd0dd7caf4b5, type: 3}
      propertyPath: InitialModule.startColor.maxColor.a
      value: 0.49803922
      objectReference: {fileID: 0}
    - target: {fileID: 1410995892411970374, guid: 851c5c704f4d93148ac6fd0dd7caf4b5, type: 3}
      propertyPath: ColorModule.gradient.maxGradient.key0.b
      value: 0.28123888
      objectReference: {fileID: 0}
    - target: {fileID: 1410995892411970374, guid: 851c5c704f4d93148ac6fd0dd7caf4b5, type: 3}
      propertyPath: ColorModule.gradient.maxGradient.key0.g
      value: 0.65259427
      objectReference: {fileID: 0}
    - target: {fileID: 1410995892411970374, guid: 851c5c704f4d93148ac6fd0dd7caf4b5, type: 3}
      propertyPath: ColorModule.gradient.maxGradient.key0.r
      value: 0.754717
      objectReference: {fileID: 0}
    - target: {fileID: 1410995892920809637, guid: 851c5c704f4d93148ac6fd0dd7caf4b5, type: 3}
      propertyPath: playOnAwake
      value: 1
      objectReference: {fileID: 0}
    - target: {fileID: 1410995892920809637, guid: 851c5c704f4d93148ac6fd0dd7caf4b5, type: 3}
      propertyPath: InitialModule.startSpeed.scalar
      value: 5
      objectReference: {fileID: 0}
    - target: {fileID: 1410995892920809637, guid: 851c5c704f4d93148ac6fd0dd7caf4b5, type: 3}
      propertyPath: InitialModule.startColor.maxColor.a
      value: 0.49803922
      objectReference: {fileID: 0}
    - target: {fileID: 1410995892920809637, guid: 851c5c704f4d93148ac6fd0dd7caf4b5, type: 3}
      propertyPath: ColorModule.gradient.maxGradient.key0.b
      value: 0.28123888
      objectReference: {fileID: 0}
    - target: {fileID: 1410995892920809637, guid: 851c5c704f4d93148ac6fd0dd7caf4b5, type: 3}
      propertyPath: ColorModule.gradient.maxGradient.key0.g
      value: 0.65259427
      objectReference: {fileID: 0}
    - target: {fileID: 1410995892920809637, guid: 851c5c704f4d93148ac6fd0dd7caf4b5, type: 3}
      propertyPath: ColorModule.gradient.maxGradient.key0.r
      value: 0.754717
      objectReference: {fileID: 0}
    - target: {fileID: 1410995892920809639, guid: 851c5c704f4d93148ac6fd0dd7caf4b5, type: 3}
      propertyPath: m_LocalScale.x
      value: 3
      objectReference: {fileID: 0}
    - target: {fileID: 1410995892920809639, guid: 851c5c704f4d93148ac6fd0dd7caf4b5, type: 3}
      propertyPath: m_LocalScale.y
      value: 3
      objectReference: {fileID: 0}
    - target: {fileID: 1410995892920809639, guid: 851c5c704f4d93148ac6fd0dd7caf4b5, type: 3}
      propertyPath: m_LocalScale.z
      value: 3
      objectReference: {fileID: 0}
    - target: {fileID: 1410995892946261097, guid: 851c5c704f4d93148ac6fd0dd7caf4b5, type: 3}
      propertyPath: playOnAwake
      value: 1
      objectReference: {fileID: 0}
    - target: {fileID: 1410995892946261097, guid: 851c5c704f4d93148ac6fd0dd7caf4b5, type: 3}
      propertyPath: InitialModule.startSpeed.scalar
      value: 5
      objectReference: {fileID: 0}
    - target: {fileID: 1410995892946261097, guid: 851c5c704f4d93148ac6fd0dd7caf4b5, type: 3}
      propertyPath: InitialModule.startColor.maxColor.a
      value: 0.49803922
      objectReference: {fileID: 0}
    - target: {fileID: 1410995892946261097, guid: 851c5c704f4d93148ac6fd0dd7caf4b5, type: 3}
      propertyPath: ColorModule.gradient.maxGradient.key0.b
      value: 0.28123888
      objectReference: {fileID: 0}
    - target: {fileID: 1410995892946261097, guid: 851c5c704f4d93148ac6fd0dd7caf4b5, type: 3}
      propertyPath: ColorModule.gradient.maxGradient.key0.g
      value: 0.65259427
      objectReference: {fileID: 0}
    - target: {fileID: 1410995892946261097, guid: 851c5c704f4d93148ac6fd0dd7caf4b5, type: 3}
      propertyPath: ColorModule.gradient.maxGradient.key0.r
      value: 0.754717
      objectReference: {fileID: 0}
    - target: {fileID: 1410995892946261099, guid: 851c5c704f4d93148ac6fd0dd7caf4b5, type: 3}
      propertyPath: m_LocalScale.x
      value: 3
      objectReference: {fileID: 0}
    - target: {fileID: 1410995892946261099, guid: 851c5c704f4d93148ac6fd0dd7caf4b5, type: 3}
      propertyPath: m_LocalScale.y
      value: 3
      objectReference: {fileID: 0}
    - target: {fileID: 1410995892946261099, guid: 851c5c704f4d93148ac6fd0dd7caf4b5, type: 3}
      propertyPath: m_LocalScale.z
      value: 3
      objectReference: {fileID: 0}
    - target: {fileID: 1746974965662388252, guid: 851c5c704f4d93148ac6fd0dd7caf4b5, type: 3}
      propertyPath: m_Name
      value: Shotgun_Shell
      objectReference: {fileID: 0}
    - target: {fileID: 3631533374675983341, guid: 851c5c704f4d93148ac6fd0dd7caf4b5, type: 3}
      propertyPath: m_LocalScale.x
      value: 3
      objectReference: {fileID: 0}
    - target: {fileID: 3631533374675983341, guid: 851c5c704f4d93148ac6fd0dd7caf4b5, type: 3}
      propertyPath: m_LocalScale.y
      value: 3
      objectReference: {fileID: 0}
    - target: {fileID: 3631533374675983341, guid: 851c5c704f4d93148ac6fd0dd7caf4b5, type: 3}
      propertyPath: m_LocalScale.z
      value: 3
      objectReference: {fileID: 0}
    - target: {fileID: 3631533374675983343, guid: 851c5c704f4d93148ac6fd0dd7caf4b5, type: 3}
      propertyPath: playOnAwake
      value: 1
      objectReference: {fileID: 0}
    - target: {fileID: 3631533374675983343, guid: 851c5c704f4d93148ac6fd0dd7caf4b5, type: 3}
      propertyPath: InitialModule.startSpeed.scalar
      value: 5
      objectReference: {fileID: 0}
    - target: {fileID: 3631533374675983343, guid: 851c5c704f4d93148ac6fd0dd7caf4b5, type: 3}
      propertyPath: InitialModule.startColor.maxColor.a
      value: 0.49803922
      objectReference: {fileID: 0}
    - target: {fileID: 3631533374675983343, guid: 851c5c704f4d93148ac6fd0dd7caf4b5, type: 3}
      propertyPath: ColorModule.gradient.maxGradient.key0.b
      value: 0.28123888
      objectReference: {fileID: 0}
    - target: {fileID: 3631533374675983343, guid: 851c5c704f4d93148ac6fd0dd7caf4b5, type: 3}
      propertyPath: ColorModule.gradient.maxGradient.key0.g
      value: 0.65259427
      objectReference: {fileID: 0}
    - target: {fileID: 3631533374675983343, guid: 851c5c704f4d93148ac6fd0dd7caf4b5, type: 3}
      propertyPath: ColorModule.gradient.maxGradient.key0.r
      value: 0.754717
      objectReference: {fileID: 0}
    - target: {fileID: 5780496909864376027, guid: 851c5c704f4d93148ac6fd0dd7caf4b5, type: 3}
      propertyPath: m_RootOrder
      value: 0
      objectReference: {fileID: 0}
    - target: {fileID: 5780496909864376027, guid: 851c5c704f4d93148ac6fd0dd7caf4b5, type: 3}
      propertyPath: m_LocalScale.x
      value: 3
      objectReference: {fileID: 0}
    - target: {fileID: 5780496909864376027, guid: 851c5c704f4d93148ac6fd0dd7caf4b5, type: 3}
      propertyPath: m_LocalScale.y
      value: 3
      objectReference: {fileID: 0}
    - target: {fileID: 5780496909864376027, guid: 851c5c704f4d93148ac6fd0dd7caf4b5, type: 3}
      propertyPath: m_LocalScale.z
      value: 3
      objectReference: {fileID: 0}
    - target: {fileID: 5780496909864376027, guid: 851c5c704f4d93148ac6fd0dd7caf4b5, type: 3}
      propertyPath: m_LocalPosition.x
      value: 0
      objectReference: {fileID: 0}
    - target: {fileID: 5780496909864376027, guid: 851c5c704f4d93148ac6fd0dd7caf4b5, type: 3}
      propertyPath: m_LocalPosition.y
      value: 0
      objectReference: {fileID: 0}
    - target: {fileID: 5780496909864376027, guid: 851c5c704f4d93148ac6fd0dd7caf4b5, type: 3}
      propertyPath: m_LocalPosition.z
      value: 0
      objectReference: {fileID: 0}
    - target: {fileID: 5780496909864376027, guid: 851c5c704f4d93148ac6fd0dd7caf4b5, type: 3}
      propertyPath: m_LocalRotation.w
      value: 1
      objectReference: {fileID: 0}
    - target: {fileID: 5780496909864376027, guid: 851c5c704f4d93148ac6fd0dd7caf4b5, type: 3}
      propertyPath: m_LocalRotation.x
      value: 0
      objectReference: {fileID: 0}
    - target: {fileID: 5780496909864376027, guid: 851c5c704f4d93148ac6fd0dd7caf4b5, type: 3}
      propertyPath: m_LocalRotation.y
      value: 0
      objectReference: {fileID: 0}
    - target: {fileID: 5780496909864376027, guid: 851c5c704f4d93148ac6fd0dd7caf4b5, type: 3}
      propertyPath: m_LocalRotation.z
      value: 0
      objectReference: {fileID: 0}
    - target: {fileID: 5780496909864376027, guid: 851c5c704f4d93148ac6fd0dd7caf4b5, type: 3}
      propertyPath: m_LocalEulerAnglesHint.x
      value: 0
      objectReference: {fileID: 0}
    - target: {fileID: 5780496909864376027, guid: 851c5c704f4d93148ac6fd0dd7caf4b5, type: 3}
      propertyPath: m_LocalEulerAnglesHint.y
      value: 0
      objectReference: {fileID: 0}
    - target: {fileID: 5780496909864376027, guid: 851c5c704f4d93148ac6fd0dd7caf4b5, type: 3}
      propertyPath: m_LocalEulerAnglesHint.z
      value: 0
      objectReference: {fileID: 0}
    m_RemovedComponents: []
  m_SourcePrefab: {fileID: 100100000, guid: 851c5c704f4d93148ac6fd0dd7caf4b5, type: 3}
--- !u!4 &4715720052858529485 stripped
Transform:
  m_CorrespondingSourceObject: {fileID: 5780496909864376027, guid: 851c5c704f4d93148ac6fd0dd7caf4b5, type: 3}
  m_PrefabInstance: {fileID: 1245783194836676630}
  m_PrefabAsset: {fileID: 0}
