%YAML 1.1
%TAG !u! tag:unity3d.com,2011:
--- !u!1 &1967229587662157859
GameObject:
  m_ObjectHideFlags: 0
  m_CorrespondingSourceObject: {fileID: 0}
  m_PrefabInstance: {fileID: 0}
  m_PrefabAsset: {fileID: 0}
  serializedVersion: 6
  m_Component:
  - component: {fileID: 5466698831805908493}
  m_Layer: 0
  m_Name: Bullet_AR
  m_TagString: Untagged
  m_Icon: {fileID: 0}
  m_NavMeshLayer: 0
  m_StaticEditorFlags: 0
  m_IsActive: 1
--- !u!4 &5466698831805908493
Transform:
  m_ObjectHideFlags: 0
  m_CorrespondingSourceObject: {fileID: 0}
  m_PrefabInstance: {fileID: 0}
  m_PrefabAsset: {fileID: 0}
  m_GameObject: {fileID: 1967229587662157859}
  m_LocalRotation: {x: 0, y: 0, z: 0, w: 1}
  m_LocalPosition: {x: -0.89, y: 0.80960274, z: 61.75524}
  m_LocalScale: {x: 1, y: 1, z: 1}
  m_Children:
  - {fileID: 7152530277010909168}
  m_Father: {fileID: 0}
  m_RootOrder: 0
  m_LocalEulerAnglesHint: {x: 0, y: 0, z: 0}
--- !u!1001 &8830066654076842845
PrefabInstance:
  m_ObjectHideFlags: 0
  serializedVersion: 2
  m_Modification:
    m_TransformParent: {fileID: 5466698831805908493}
    m_Modifications:
    - target: {fileID: 1857830171834553517, guid: 692c1140af44d5449b04a5f5e9199178, type: 3}
      propertyPath: m_RootOrder
      value: 0
      objectReference: {fileID: 0}
    - target: {fileID: 1857830171834553517, guid: 692c1140af44d5449b04a5f5e9199178, type: 3}
      propertyPath: m_LocalScale.x
      value: 2
      objectReference: {fileID: 0}
    - target: {fileID: 1857830171834553517, guid: 692c1140af44d5449b04a5f5e9199178, type: 3}
      propertyPath: m_LocalScale.y
      value: 2
      objectReference: {fileID: 0}
    - target: {fileID: 1857830171834553517, guid: 692c1140af44d5449b04a5f5e9199178, type: 3}
      propertyPath: m_LocalScale.z
      value: 2
      objectReference: {fileID: 0}
    - target: {fileID: 1857830171834553517, guid: 692c1140af44d5449b04a5f5e9199178, type: 3}
      propertyPath: m_LocalPosition.x
      value: 0
      objectReference: {fileID: 0}
    - target: {fileID: 1857830171834553517, guid: 692c1140af44d5449b04a5f5e9199178, type: 3}
      propertyPath: m_LocalPosition.y
      value: 0
      objectReference: {fileID: 0}
    - target: {fileID: 1857830171834553517, guid: 692c1140af44d5449b04a5f5e9199178, type: 3}
      propertyPath: m_LocalPosition.z
      value: 0
      objectReference: {fileID: 0}
    - target: {fileID: 1857830171834553517, guid: 692c1140af44d5449b04a5f5e9199178, type: 3}
      propertyPath: m_LocalRotation.w
      value: 1
      objectReference: {fileID: 0}
    - target: {fileID: 1857830171834553517, guid: 692c1140af44d5449b04a5f5e9199178, type: 3}
      propertyPath: m_LocalRotation.x
      value: 0
      objectReference: {fileID: 0}
    - target: {fileID: 1857830171834553517, guid: 692c1140af44d5449b04a5f5e9199178, type: 3}
      propertyPath: m_LocalRotation.y
      value: 0
      objectReference: {fileID: 0}
    - target: {fileID: 1857830171834553517, guid: 692c1140af44d5449b04a5f5e9199178, type: 3}
      propertyPath: m_LocalRotation.z
      value: 0
      objectReference: {fileID: 0}
    - target: {fileID: 1857830171834553517, guid: 692c1140af44d5449b04a5f5e9199178, type: 3}
      propertyPath: m_LocalEulerAnglesHint.x
      value: 0
      objectReference: {fileID: 0}
    - target: {fileID: 1857830171834553517, guid: 692c1140af44d5449b04a5f5e9199178, type: 3}
      propertyPath: m_LocalEulerAnglesHint.y
      value: 0
      objectReference: {fileID: 0}
    - target: {fileID: 1857830171834553517, guid: 692c1140af44d5449b04a5f5e9199178, type: 3}
      propertyPath: m_LocalEulerAnglesHint.z
      value: 0
      objectReference: {fileID: 0}
    - target: {fileID: 3625860080389352856, guid: 692c1140af44d5449b04a5f5e9199178, type: 3}
      propertyPath: InitialModule.startSpeed.scalar
      value: 10
      objectReference: {fileID: 0}
    - target: {fileID: 3625860080389352858, guid: 692c1140af44d5449b04a5f5e9199178, type: 3}
      propertyPath: m_LocalScale.x
      value: 2
      objectReference: {fileID: 0}
    - target: {fileID: 3625860080389352858, guid: 692c1140af44d5449b04a5f5e9199178, type: 3}
      propertyPath: m_LocalScale.y
      value: 2
      objectReference: {fileID: 0}
    - target: {fileID: 3625860080389352858, guid: 692c1140af44d5449b04a5f5e9199178, type: 3}
      propertyPath: m_LocalScale.z
      value: 2
      objectReference: {fileID: 0}
    - target: {fileID: 6797103430266394351, guid: 692c1140af44d5449b04a5f5e9199178, type: 3}
      propertyPath: m_Name
      value: Assault_Player
      objectReference: {fileID: 0}
    m_RemovedComponents: []
  m_SourcePrefab: {fileID: 100100000, guid: 692c1140af44d5449b04a5f5e9199178, type: 3}
--- !u!4 &7152530277010909168 stripped
Transform:
  m_CorrespondingSourceObject: {fileID: 1857830171834553517, guid: 692c1140af44d5449b04a5f5e9199178, type: 3}
  m_PrefabInstance: {fileID: 8830066654076842845}
  m_PrefabAsset: {fileID: 0}
